,trait,precision,recall,accuracy
16,facet_assertiveness,0.7307692307692307,0.59375,0.6923076923076923
11,facet_orderliness,0.7142857142857143,0.625,0.6923076923076923
0,big5_openness,0.6774193548387096,0.65625,0.676923076923077
40,need_ideal,0.6923076923076923,0.5625,0.6615384615384615
39,need_harmony,0.625,0.78125,0.6615384615384615
32,facet_immoderation,0.6923076923076923,0.5625,0.6615384615384615
42,need_love,0.6451612903225806,0.625,0.6461538461538462
4,facet_imagination,0.7647058823529411,0.40625,0.6461538461538462
7,big5_conscientiousness,0.6,0.84375,0.6461538461538462
27,facet_trust,0.6216216216216216,0.71875,0.6461538461538462
18,facet_excitement_seeking,0.625,0.625,0.6307692307692307
31,facet_depression,0.625,0.625,0.6307692307692307
28,big5_neuroticism,0.6333333333333333,0.59375,0.6307692307692307
44,need_self_expression,0.6176470588235294,0.65625,0.6307692307692307
25,facet_morality,0.6428571428571429,0.5625,0.6307692307692307
22,facet_altruism,0.7222222222222222,0.40625,0.6307692307692307
21,big5_agreeableness,0.75,0.375,0.6307692307692307
51,value_self_transcendence,0.6818181818181818,0.46875,0.6307692307692307
2,facet_artistic_interests,0.7857142857142857,0.34375,0.6307692307692307
17,facet_cheerfulness,0.64,0.5,0.6153846153846154
36,need_closeness,0.6060606060606061,0.625,0.6153846153846154
37,need_curiosity,0.6060606060606061,0.625,0.6153846153846154
9,facet_cautiousness,0.6296296296296297,0.53125,0.6153846153846154
5,facet_intellect,0.64,0.5,0.6153846153846154
1,facet_adventurousness,0.5714285714285714,0.875,0.6153846153846154
15,facet_activity_level,0.6842105263157895,0.40625,0.6153846153846154
24,facet_modesty,0.75,0.28125,0.6
45,need_stability,0.5833333333333334,0.65625,0.6
47,value_conservation,0.6875,0.34375,0.6
49,value_hedonism,0.875,0.21875,0.6
34,facet_vulnerability,0.5882352941176471,0.625,0.6
46,need_structure,0.5454545454545454,0.9375,0.5846153846153846
41,need_liberty,0.6,0.46875,0.5846153846153846
38,need_excitement,0.5757575757575758,0.59375,0.5846153846153846
50,value_self_enhancement,0.5531914893617021,0.8125,0.5846153846153846
26,facet_sympathy,0.6086956521739131,0.4375,0.5846153846153846
20,facet_gregariousness,0.5757575757575758,0.59375,0.5846153846153846
8,facet_achievement_striving,0.6666666666666666,0.25,0.5692307692307692
6,facet_liberalism,0.5833333333333334,0.4375,0.5692307692307692
29,facet_anger,0.7,0.21875,0.5692307692307692
3,facet_emotionality,0.8333333333333334,0.15625,0.5692307692307692
43,need_practicality,0.5625,0.5625,0.5692307692307692
23,facet_cooperation,0.6,0.375,0.5692307692307692
48,value_openness_to_change,0.6111111111111112,0.34375,0.5692307692307692
14,big5_extraversion,0.55,0.6875,0.5692307692307692
19,facet_friendliness,0.6,0.28125,0.5538461538461539
33,facet_self_consciousness,0.8,0.125,0.5538461538461539
30,facet_anxiety,0.5384615384615384,0.65625,0.5538461538461539
12,facet_self_discipline,0.7142857142857143,0.15625,0.5538461538461539
35,need_challenge,0.5294117647058824,0.84375,0.5538461538461539
10,facet_dutifulness,0.5454545454545454,0.375,0.5384615384615384
13,facet_self_efficacy,0.5357142857142857,0.46875,0.5384615384615384
